{
    "applications": {
        "SnackFeed": {
            "applicationId": "kIBncmB7l4WCopRyzBtW6wqQPRSxIJ7l1jOw3Brz", 
            "masterKey": "U7Xx4VaBTBD9cxnZR94koAGoASbb7GEwg3F0uA2m"
        }, 
        "_default": {
            "link": "SnackFeed"
        }
    }, 
    "global": {
        "parseVersion": "1.3.4"
    }
}